{
    "data": {
        "curPage": 1,
        "datas": [{
            "apkLink": "",
            "audit": 1,
            "author": "",
            "canEdit": false,
            "chapterId": 502,
            "chapterName": "自助",
            "collect": false,
            "courseId": 13,
            "desc": "",
            "descMd": "",
            "envelopePic": "",
            "fresh": true,
            "id": 16327,
            "link": "https://juejin.cn/post/6902996077549617160",
            "niceDate": "3小时前",
            "niceShareDate": "3小时前",
            "origin": "",
            "prefix": "",
            "projectLink": "",
            "publishTime": 1607229428000,
            "realSuperChapterId": 493,
            "selfVisible": 0,
            "shareDate": 1607229428000,
            "shareUser": "RicardoMJiang",
            "superChapterId": 494,
            "superChapterName": "广场Tab",
            "tags": [],
            "title": "【2020年终总结】程序员的三年之痒 | 掘金年度征文",
            "type": 0,
            "userId": 13971,
            "visible": 1,
            "zan": 0
        }, {
            "apkLink": "",
            "audit": 1,
            "author": "",
            "canEdit": false,
            "chapterId": 502,
            "chapterName": "自助",
            "collect": false,
            "courseId": 13,
            "desc": "",
            "descMd": "",
            "envelopePic": "",
            "fresh": true,
            "id": 16324,
            "link": "https://juejin.cn/post/6902693085973577741",
            "niceDate": "22小时前",
            "niceShareDate": "22小时前",
            "origin": "",
            "prefix": "",
            "projectLink": "",
            "publishTime": 1607160001000,
            "realSuperChapterId": 493,
            "selfVisible": 0,
            "shareDate": 1607160001000,
            "shareUser": "lcfspark",
            "superChapterId": 494,
            "superChapterName": "广场Tab",
            "tags": [],
            "title": "重学系列---序列化(GSON）",
            "type": 0,
            "userId": 28772,
            "visible": 1,
            "zan": 0
        }, {
            "apkLink": "",
            "audit": 1,
            "author": "yukilzw",
            "canEdit": false,
            "chapterId": 294,
            "chapterName": "完整项目",
            "collect": false,
            "courseId": 13,
            "desc": "AI智能弹幕（也称蒙版弹幕）：弹幕浮在视频播放器的上方却永远不会挡住人物。此项目除了会使用Flutter新方案进行跨端实现，同时也会讲解如何将一段任意视频流使用opencv-python处理成蒙版数据源。达成从0到1的前后端AI体系。",
            "descMd": "",
            "envelopePic": "https://wanandroid.com/blogimgs/4fe3a9e9-98b3-4fa3-86c9-0483981de7d6.png",
            "fresh": false,
            "id": 16317,
            "link": "https://www.wanandroid.com/blog/show/2808",
            "niceDate": "1天前",
            "niceShareDate": "1天前",
            "origin": "",
            "prefix": "",
            "projectLink": "https://github.com/yukilzw/zoe_barrage",
            "publishTime": 1607097702000,
            "realSuperChapterId": 293,
            "selfVisible": 0,
            "shareDate": 1607097702000,
            "shareUser": "",
            "superChapterId": 294,
            "superChapterName": "开源项目主Tab",
            "tags": [{
                "name": "项目",
                "url": "/project/list/1?cid=294"
            }],
            "title": "Flutter &middot; Python AI 弹幕播放器( 弹幕浮在视频播放器的上方却永远不会挡住人物)",
            "type": 0,
            "userId": -1,
            "visible": 1,
            "zan": 0
        }, {
            "apkLink": "",
            "audit": 1,
            "author": "RobbinM",
            "canEdit": false,
            "chapterId": 294,
            "chapterName": "完整项目",
            "collect": false,
            "courseId": 13,
            "desc": "WanAndroid 客户端，采用 Kotlin 语言编写，项目使用  JetPack-MVVM 架构，采用 Retrofit + Coroutines + Coil 等开源框架开发。",
            "descMd": "",
            "envelopePic": "https://wanandroid.com/blogimgs/d40df481-5fc1-4e8c-ba44-054b26596a64.png",
            "fresh": false,
            "id": 16316,
            "link": "https://www.wanandroid.com/blog/show/2807",
            "niceDate": "1天前",
            "niceShareDate": "1天前",
            "origin": "",
            "prefix": "",
            "projectLink": "https://github.com/RobbinM/WanAndroidMVVM",
            "publishTime": 1607092905000,
            "realSuperChapterId": 293,
            "selfVisible": 0,
            "shareDate": 1607092905000,
            "shareUser": "",
            "superChapterId": 294,
            "superChapterName": "开源项目主Tab",
            "tags": [{
                "name": "项目",
                "url": "/project/list/1?cid=294"
            }],
            "title": "Kotlin 版基于 MVVM + Coroutines + Retrofit 的 WanAndroid 客户端",
            "type": 0,
            "userId": -1,
            "visible": 1,
            "zan": 0
        }, {
            "apkLink": "",
            "audit": 1,
            "author": "",
            "canEdit": false,
            "chapterId": 478,
            "chapterName": "DataBinding",
            "collect": false,
            "courseId": 13,
            "desc": "",
            "descMd": "",
            "envelopePic": "",
            "fresh": false,
            "id": 16303,
            "link": "https://openxu.blog.csdn.net/article/details/110393163",
            "niceDate": "2天前",
            "niceShareDate": "2020-12-03 14:46",
            "origin": "",
            "prefix": "",
            "projectLink": "",
            "publishTime": 1607058804000,
            "realSuperChapterId": 422,
            "selfVisible": 0,
            "shareDate": 1606977961000,
            "shareUser": "深红骑士",
            "superChapterId": 423,
            "superChapterName": "Jetpack",
            "tags": [],
            "title": "DataBinding为null？模块化开发中的DataBinding你需要注意了",
            "type": 0,
            "userId": 29303,
            "visible": 1,
            "zan": 0
        }, {
            "apkLink": "",
            "audit": 1,
            "author": "",
            "canEdit": false,
            "chapterId": 228,
            "chapterName": "辅助 or 工具类",
            "collect": false,
            "courseId": 13,
            "desc": "",
            "descMd": "",
            "envelopePic": "",
            "fresh": false,
            "id": 16309,
            "link": "https://juejin.cn/post/6901950591744868360",
            "niceDate": "2天前",
            "niceShareDate": "2天前",
            "origin": "",
            "prefix": "",
            "projectLink": "",
            "publishTime": 1607058784000,
            "realSuperChapterId": 156,
            "selfVisible": 0,
            "shareDate": 1607043277000,
            "shareUser": "goweii",
            "superChapterId": 135,
            "superChapterName": "项目必备",
            "tags": [],
            "title": "探究 | 如何捕获一个Activity页面上所有的点击行为",
            "type": 0,
            "userId": 20382,
            "visible": 1,
            "zan": 0
        }, {
            "apkLink": "",
            "audit": 1,
            "author": "",
            "canEdit": false,
            "chapterId": 228,
            "chapterName": "辅助 or 工具类",
            "collect": false,
            "courseId": 13,
            "desc": "",
            "descMd": "",
            "envelopePic": "",
            "fresh": false,
            "id": 16310,
            "link": "https://blog.csdn.net/fengyeNom1/article/details/110530339",
            "niceDate": "2天前",
            "niceShareDate": "2天前",
            "origin": "",
            "prefix": "",
            "projectLink": "",
            "publishTime": 1607058769000,
            "realSuperChapterId": 156,
            "selfVisible": 0,
            "shareDate": 1607045836000,
            "shareUser": "冯人唐",
            "superChapterId": 135,
            "superChapterName": "项目必备",
            "tags": [],
            "title": "微信支付返回-1问题",
            "type": 0,
            "userId": 2318,
            "visible": 1,
            "zan": 0
        }, {
            "apkLink": "",
            "audit": 1,
            "author": "鸿洋",
            "canEdit": false,
            "chapterId": 408,
            "chapterName": "鸿洋",
            "collect": false,
            "courseId": 13,
            "desc": "",
            "descMd": "",
            "envelopePic": "",
            "fresh": false,
            "id": 16314,
            "link": "https://mp.weixin.qq.com/s/V1xI2M8AibgB2whHSOTQGQ",
            "niceDate": "2天前",
            "niceShareDate": "1天前",
            "origin": "",
            "prefix": "",
            "projectLink": "",
            "publishTime": 1607011200000,
            "realSuperChapterId": 407,
            "selfVisible": 0,
            "shareDate": 1607091975000,
            "shareUser": "",
            "superChapterId": 408,
            "superChapterName": "公众号",
            "tags": [{
                "name": "公众号",
                "url": "/wxarticle/list/408/1"
            }],
            "title": "Handler 10问，你顶的住吗？",
            "type": 0,
            "userId": -1,
            "visible": 1,
            "zan": 0
        }, {
            "apkLink": "",
            "audit": 1,
            "author": "郭霖",
            "canEdit": false,
            "chapterId": 409,
            "chapterName": "郭霖",
            "collect": false,
            "courseId": 13,
            "desc": "",
            "descMd": "",
            "envelopePic": "",
            "fresh": false,
            "id": 16315,
            "link": "https://mp.weixin.qq.com/s/uT91PMGEarCKt-Z6L1jWnA",
            "niceDate": "2天前",
            "niceShareDate": "1天前",
            "origin": "",
            "prefix": "",
            "projectLink": "",
            "publishTime": 1607011200000,
            "realSuperChapterId": 407,
            "selfVisible": 0,
            "shareDate": 1607091990000,
            "shareUser": "",
            "superChapterId": 408,
            "superChapterName": "公众号",
            "tags": [{
                "name": "公众号",
                "url": "/wxarticle/list/409/1"
            }],
            "title": "浅谈APP的回收和重启机制",
            "type": 0,
            "userId": -1,
            "visible": 1,
            "zan": 0
        }, {
            "apkLink": "",
            "audit": 1,
            "author": "",
            "canEdit": false,
            "chapterId": 98,
            "chapterName": "WebView",
            "collect": false,
            "courseId": 13,
            "desc": "",
            "descMd": "",
            "envelopePic": "",
            "fresh": false,
            "id": 16298,
            "link": "https://juejin.cn/post/6901487965562732551",
            "niceDate": "2020-12-03 00:33",
            "niceShareDate": "2020-12-03 00:31",
            "origin": "",
            "prefix": "",
            "projectLink": "",
            "publishTime": 1606926785000,
            "realSuperChapterId": 34,
            "selfVisible": 0,
            "shareDate": 1606926687000,
            "shareUser": "鸿洋",
            "superChapterId": 98,
            "superChapterName": "网络访问",
            "tags": [],
            "title": "Android-WebView还会存在内存泄漏吗？",
            "type": 0,
            "userId": 2,
            "visible": 1,
            "zan": 0
        }, {
            "apkLink": "",
            "audit": 1,
            "author": "",
            "canEdit": false,
            "chapterId": 93,
            "chapterName": "基础知识",
            "collect": false,
            "courseId": 13,
            "desc": "",
            "descMd": "",
            "envelopePic": "",
            "fresh": false,
            "id": 16299,
            "link": "https://juejin.cn/post/6901615804573384718",
            "niceDate": "2020-12-03 00:32",
            "niceShareDate": "2020-12-03 00:32",
            "origin": "",
            "prefix": "",
            "projectLink": "",
            "publishTime": 1606926771000,
            "realSuperChapterId": 37,
            "selfVisible": 0,
            "shareDate": 1606926734000,
            "shareUser": "鸿洋",
            "superChapterId": 126,
            "superChapterName": "自定义控件",
            "tags": [],
            "title": "线上产品中自定义View应该如何完善？",
            "type": 0,
            "userId": 2,
            "visible": 1,
            "zan": 0
        }, {
            "apkLink": "",
            "audit": 1,
            "author": "Android群英传",
            "canEdit": false,
            "chapterId": 413,
            "chapterName": "Android群英传",
            "collect": false,
            "courseId": 13,
            "desc": "",
            "descMd": "",
            "envelopePic": "",
            "fresh": false,
            "id": 16305,
            "link": "https://mp.weixin.qq.com/s/kqjYN4LqzONkDAHI3rLRTQ",
            "niceDate": "2020-12-03 00:00",
            "niceShareDate": "2天前",
            "origin": "",
            "prefix": "",
            "projectLink": "",
            "publishTime": 1606924800000,
            "realSuperChapterId": 407,
            "selfVisible": 0,
            "shareDate": 1607008960000,
            "shareUser": "",
            "superChapterId": 408,
            "superChapterName": "公众号",
            "tags": [{
                "name": "公众号",
                "url": "/wxarticle/list/413/1"
            }],
            "title": "JetPack指路明灯&mdash;Navigation",
            "type": 0,
            "userId": -1,
            "visible": 1,
            "zan": 0
        }, {
            "apkLink": "",
            "audit": 1,
            "author": "鸿洋",
            "canEdit": false,
            "chapterId": 408,
            "chapterName": "鸿洋",
            "collect": false,
            "courseId": 13,
            "desc": "",
            "descMd": "",
            "envelopePic": "",
            "fresh": false,
            "id": 16307,
            "link": "https://mp.weixin.qq.com/s/lfgqm0H7qeuK1jOPZtx_kQ",
            "niceDate": "2020-12-03 00:00",
            "niceShareDate": "2天前",
            "origin": "",
            "prefix": "",
            "projectLink": "",
            "publishTime": 1606924800000,
            "realSuperChapterId": 407,
            "selfVisible": 0,
            "shareDate": 1607008993000,
            "shareUser": "",
            "superChapterId": 408,
            "superChapterName": "公众号",
            "tags": [{
                "name": "公众号",
                "url": "/wxarticle/list/408/1"
            }],
            "title": "Jetpack 实战：神奇宝贝",
            "type": 0,
            "userId": -1,
            "visible": 1,
            "zan": 0
        }, {
            "apkLink": "",
            "audit": 1,
            "author": "郭霖",
            "canEdit": false,
            "chapterId": 409,
            "chapterName": "郭霖",
            "collect": false,
            "courseId": 13,
            "desc": "",
            "descMd": "",
            "envelopePic": "",
            "fresh": false,
            "id": 16308,
            "link": "https://mp.weixin.qq.com/s/ep_n_8XmVlaJlgo2yXIGkQ",
            "niceDate": "2020-12-03 00:00",
            "niceShareDate": "2天前",
            "origin": "",
            "prefix": "",
            "projectLink": "",
            "publishTime": 1606924800000,
            "realSuperChapterId": 407,
            "selfVisible": 0,
            "shareDate": 1607009010000,
            "shareUser": "",
            "superChapterId": 408,
            "superChapterName": "公众号",
            "tags": [{
                "name": "公众号",
                "url": "/wxarticle/list/409/1"
            }],
            "title": "Flutter埋点全攻略",
            "type": 0,
            "userId": -1,
            "visible": 1,
            "zan": 0
        }, {
            "apkLink": "",
            "audit": 1,
            "author": "",
            "canEdit": false,
            "chapterId": 502,
            "chapterName": "自助",
            "collect": false,
            "courseId": 13,
            "desc": "",
            "descMd": "",
            "envelopePic": "",
            "fresh": false,
            "id": 16297,
            "link": "https://juejin.cn/post/6901582541208158216",
            "niceDate": "2020-12-02 21:01",
            "niceShareDate": "2020-12-02 21:01",
            "origin": "",
            "prefix": "",
            "projectLink": "",
            "publishTime": 1606914070000,
            "realSuperChapterId": 493,
            "selfVisible": 0,
            "shareDate": 1606914070000,
            "shareUser": "Zhu_Jiang",
            "superChapterId": 494,
            "superChapterName": "广场Tab",
            "tags": [],
            "title": "玩安卓从 0 到 1 之列表一键置顶",
            "type": 0,
            "userId": 56200,
            "visible": 1,
            "zan": 0
        }, {
            "apkLink": "",
            "audit": 1,
            "author": "rabbit-open",
            "canEdit": false,
            "chapterId": 294,
            "chapterName": "完整项目",
            "collect": false,
            "courseId": 13,
            "desc": "兔子测试是一款实时查看网络请求的插件，设计初衷目的快速开发接口，调试UI和业务，不需要等待后端API完成。目前支持简易版和Web调试版。",
            "descMd": "",
            "envelopePic": "https://wanandroid.com/blogimgs/8eec15fd-1d7f-40d9-ae17-f340029f2785.png",
            "fresh": false,
            "id": 16292,
            "link": "https://www.wanandroid.com/blog/show/2806",
            "niceDate": "2020-12-02 01:04",
            "niceShareDate": "2020-12-02 01:04",
            "origin": "",
            "prefix": "",
            "projectLink": "https://github.com/rabbit-open/rabbit",
            "publishTime": 1606842268000,
            "realSuperChapterId": 293,
            "selfVisible": 0,
            "shareDate": 1606842268000,
            "shareUser": "",
            "superChapterId": 294,
            "superChapterName": "开源项目主Tab",
            "tags": [{
                "name": "项目",
                "url": "/project/list/1?cid=294"
            }],
            "title": "兔子测试是一款实时查看网络请求的插件",
            "type": 0,
            "userId": -1,
            "visible": 1,
            "zan": 0
        }, {
            "apkLink": "",
            "audit": 1,
            "author": "鸿洋",
            "canEdit": false,
            "chapterId": 408,
            "chapterName": "鸿洋",
            "collect": false,
            "courseId": 13,
            "desc": "",
            "descMd": "",
            "envelopePic": "",
            "fresh": false,
            "id": 16300,
            "link": "https://mp.weixin.qq.com/s/5gYs5_xutYlkrFm9ZzaPzQ",
            "niceDate": "2020-12-02 00:00",
            "niceShareDate": "2020-12-03 00:50",
            "origin": "",
            "prefix": "",
            "projectLink": "",
            "publishTime": 1606838400000,
            "realSuperChapterId": 407,
            "selfVisible": 0,
            "shareDate": 1606927838000,
            "shareUser": "",
            "superChapterId": 408,
            "superChapterName": "公众号",
            "tags": [{
                "name": "公众号",
                "url": "/wxarticle/list/408/1"
            }],
            "title": "带着问题学LiveData，你应该知道的知识点",
            "type": 0,
            "userId": -1,
            "visible": 1,
            "zan": 0
        }, {
            "apkLink": "",
            "audit": 1,
            "author": "",
            "canEdit": false,
            "chapterId": 502,
            "chapterName": "自助",
            "collect": false,
            "courseId": 13,
            "desc": "",
            "descMd": "",
            "envelopePic": "",
            "fresh": false,
            "id": 16285,
            "link": "https://www.jianshu.com/p/7121ce8c4932",
            "niceDate": "2020-12-01 20:16",
            "niceShareDate": "2020-12-01 20:16",
            "origin": "",
            "prefix": "",
            "projectLink": "",
            "publishTime": 1606824981000,
            "realSuperChapterId": 493,
            "selfVisible": 0,
            "shareDate": 1606824981000,
            "shareUser": "你怕是很皮哦",
            "superChapterId": 494,
            "superChapterName": "广场Tab",
            "tags": [],
            "title": "Gradle源码分析（三）",
            "type": 0,
            "userId": 40219,
            "visible": 1,
            "zan": 0
        }, {
            "apkLink": "",
            "audit": 1,
            "author": "code小生",
            "canEdit": false,
            "chapterId": 414,
            "chapterName": "code小生",
            "collect": false,
            "courseId": 13,
            "desc": "",
            "descMd": "",
            "envelopePic": "",
            "fresh": false,
            "id": 16289,
            "link": "https://mp.weixin.qq.com/s/Xuc034VlR7TqjTaoaSuI2A",
            "niceDate": "2020-12-01 00:00",
            "niceShareDate": "2020-12-02 00:58",
            "origin": "",
            "prefix": "",
            "projectLink": "",
            "publishTime": 1606752000000,
            "realSuperChapterId": 407,
            "selfVisible": 0,
            "shareDate": 1606841884000,
            "shareUser": "",
            "superChapterId": 408,
            "superChapterName": "公众号",
            "tags": [{
                "name": "公众号",
                "url": "/wxarticle/list/414/1"
            }],
            "title": "强大！ASM 插桩实现 Android 端无埋点性能监控！",
            "type": 0,
            "userId": -1,
            "visible": 1,
            "zan": 0
        }, {
            "apkLink": "",
            "audit": 1,
            "author": "鸿洋",
            "canEdit": false,
            "chapterId": 408,
            "chapterName": "鸿洋",
            "collect": false,
            "courseId": 13,
            "desc": "",
            "descMd": "",
            "envelopePic": "",
            "fresh": false,
            "id": 16290,
            "link": "https://mp.weixin.qq.com/s/i9iXNLDATG7_GBBe_IM4qg",
            "niceDate": "2020-12-01 00:00",
            "niceShareDate": "2020-12-02 00:58",
            "origin": "",
            "prefix": "",
            "projectLink": "",
            "publishTime": 1606752000000,
            "realSuperChapterId": 407,
            "selfVisible": 0,
            "shareDate": 1606841907000,
            "shareUser": "",
            "superChapterId": 408,
            "superChapterName": "公众号",
            "tags": [{
                "name": "公众号",
                "url": "/wxarticle/list/408/1"
            }],
            "title": "没见过这么详细的，自定义控件图形探索！",
            "type": 0,
            "userId": -1,
            "visible": 1,
            "zan": 0
        }],
        "offset": 0,
        "over": false,
        "pageCount": 482,
        "size": 20,
        "total": 9626
    },
    "errorCode": 0,
    "errorMsg": ""
}